{
  "gridUrl": "http://localhost:4444/wd/hub",
  "baseline": "./aye/baseline",
  "latest": "./aye/latest",
  "generatedDiffs": "./aye/generatedDiffs",
  "report": "./aye/reports",
  "scenarios": [
    {
      "url": "http://localhost:4200/",
      "label": "label",
      "onReadyScript": "./aye/scripts/premium.js",
      "viewports": [
        {
          "height": 1500,
          "width": 1024,
          "label": "large"
        }
      ]
    }
  ]
}
